r-python-exercise3
…
A tibble is a data structure in R that is part of the tidyverse ecosystem, designed to provide a more user-friendly and consistent way to work with tabular data. It’s a modern and enhanced version of the traditional R data frame, offering a more predictable and efficient data structure for data manipulation and analysis.

library(tidyverse)
as_tibble(Zoo, rownames = "animal")

# A tibble: 101 × 18
   animal  hair  feathers eggs  milk  airborne aquatic predator toothed backbone
   <chr>   <lgl> <lgl>    <lgl> <lgl> <lgl>    <lgl>   <lgl>    <lgl>   <lgl>   
 1 aardva… TRUE  FALSE    FALSE TRUE  FALSE    FALSE   TRUE     TRUE    TRUE    
 2 antelo… TRUE  FALSE    FALSE TRUE  FALSE    FALSE   FALSE    TRUE    TRUE    
 3 bass    FALSE FALSE    TRUE  FALSE FALSE    TRUE    TRUE     TRUE    TRUE    
 4 bear    TRUE  FALSE    FALSE TRUE  FALSE    FALSE   TRUE     TRUE    TRUE    
 5 boar    TRUE  FALSE    FALSE TRUE  FALSE    FALSE   TRUE     TRUE    TRUE    
 6 buffalo TRUE  FALSE    FALSE TRUE  FALSE    FALSE   FALSE    TRUE    TRUE    
 7 calf    TRUE  FALSE    FALSE TRUE  FALSE    FALSE   FALSE    TRUE    TRUE    
 8 carp    FALSE FALSE    TRUE  FALSE FALSE    TRUE    FALSE    TRUE    TRUE    
 9 catfish FALSE FALSE    TRUE  FALSE FALSE    TRUE    TRUE     TRUE    TRUE    
10 cavy    TRUE  FALSE    FALSE TRUE  FALSE    FALSE   FALSE    TRUE    TRUE    
# ℹ 91 more rows
# ℹ 8 more variables: breathes <lgl>, venomous <lgl>, fins <lgl>, legs <int>,
#   tail <lgl>, domestic <lgl>, catsize <lgl>, type <fct>
…
Zoo_train_dummy <- as_tibble(class2ind(Zoo_train$type)) |> 
  mutate(across(everything(), as.factor)) |>
  add_column(predator = Zoo_train$predator)
Zoo_train_dummy

# A tibble: 83 × 8
   mammal bird  reptile fish  amphibian insect mollusc.et.al predator
   <fct>  <fct> <fct>   <fct> <fct>     <fct>  <fct>         <fct>   
 1 1      0     0       0     0         0      0             TRUE    
 2 1      0     0       0     0         0      0             FALSE   
 3 0      0     0       1     0         0      0             TRUE    
 4 1      0     0       0     0         0      0             TRUE    
 5 1      0     0       0     0         0      0             FALSE   
 6 1      0     0       0     0         0      0             FALSE   
 7 0      0     0       1     0         0      0             FALSE   
 8 0      0     0       1     0         0      0             TRUE    
 9 1      0     0       0     0         0      0             FALSE   
10 0      1     0       0     0         0      0             FALSE   
# ℹ 73 more rows
…
Penguins Dataset

For easier visualization, we use two dimensions of the penguins dataset. Contour lines visualize the density like mountains on a map.

set.seed(1000)
data("penguins")
penguins <- as_tibble(penguins) |>
  drop_na()

### Three classes 
### (note: MASS also has a select function which hides dplyr's select)
x <- penguins |> dplyr::select(bill_length_mm, bill_depth_mm, species)
x

# A tibble: 333 × 3
   bill_length_mm bill_depth_mm species
            <dbl>         <dbl> <fct>  
 1           39.1          18.7 Adelie 
 2           39.5          17.4 Adelie 
 3           40.3          18   Adelie 
 4           36.7          19.3 Adelie 
 5           39.3          20.6 Adelie 
 6           38.9          17.8 Adelie 
 7           39.2          19.6 Adelie 
 8           41.1          17.6 Adelie 
 9           38.6          21.2 Adelie 
10           34.6          21.1 Adelie 
# ℹ 323 more rows
…
Circle Dataset

set.seed(1000)

x <- mlbench::mlbench.circle(500)
###x <- mlbench::mlbench.cassini(500)
###x <- mlbench::mlbench.spirals(500, sd = .1)
###x <- mlbench::mlbench.smiley(500)
x <- cbind(as.data.frame(x$x), factor(x$classes))
colnames(x) <- c("x", "y", "class")
x <- as_tibble(x)
x

# A tibble: 500 × 3
         x       y class
     <dbl>   <dbl> <fct>
 1 -0.344   0.448  1    
 2  0.518   0.915  2    
 3 -0.772  -0.0913 1    
 4  0.382   0.412  1    
 5  0.0328  0.438  1    
 6 -0.865  -0.354  2    
 7  0.477   0.640  2    
 8  0.167  -0.809  2    
 9 -0.568  -0.281  1    
10 -0.488   0.638  2    
# ℹ 490 more rows
…
